﻿{
  "Group": "Misc",
  "FriendlyName": "Resanehlab Core",
  "SystemName": "Resanehlab.Core",
  "Version": "1.00",
  "SupportedVersions": [ "4.20" ],
  "Author": "Resanehlab",
  "DisplayOrder": -1,
  "FileName": "Resanehlab.Plugin.Core.dll",
  "Description": "Resanehlab core plugin."
}