﻿{
  "Group": "Payment methods",
  "FriendlyName": "Credit Card",
  "SystemName": "Payments.MasterCardHosted",
  "Version": "2.01",
  "SupportedVersions": [ "4.20" ],
  "Author": "NB Team",
  "DisplayOrder": 1,
  "FileName": "Nop.Plugin.Payments.MasterCardHosted.dll",
  "Description": "This plugin enables credit card payment with master card"
}